﻿Información de la simulación;;;;
Dmax;Vo;Ángulo;Tmax;g=Vo*sen(T^2)/Dmax
15.01 m;7.21 m/s²;30 °;2.4 s;2,98
17.2 m;7.41 m/s²;35 °;2.83 s;2,99
12.55 m;7.01 m/s²;25 °;1.98 s;2,99
6.43 m;7.51 m/s²;10 °;0.87 s;2,99
;;;;
;Buenas tardes Para resolver el ejercicio siguiente, es necesario conocer a cerca la incertidumbre en las mediciones.La incertidumbre es la falta de seguridad que se puede tener respecto a una medición tomada. Todas las mediciones están asociadas a una incertidumbre dados por la maturaleza de la magnitud que se mide, el instrumento de medición, la capacidad humana y las condiciones ambientales y externas. Dado ésto, es posible cualificar los posibles errores a partir de la duda o incertidumbre. Es claro que en toda medición se comenten errores que pueden ser propios del instrimuento a causa de mantenibilidad del mismo, su capacidad o condiciones del ambienta, o del sistema de medición en el caso de tomar medidas muy pequeñas con unidades grandes y viceversa. Así mismo cuando existen errores de fallas de instrumento se conoce como errores sistemáticos, y los causados de forma imprevista son errores aleatorios. Por ello, para calcular la magnitud del error es necesario tomar mediciones con los elementos calibrados y hayar el promedio de sus resultados. para el caso del ejercicio tenemos 4 medidas de la gravedad en la luna a partir de los valores de velocidad inicial, ángulo y distancia, con un promedio de gravedad . éste valor es importante para hayar el error absoluto y error relativo, siendo el primero la diferencia entre el valor de la medición y cada resultado obtenido, y el segundo es el cociente del error absoluto y el valor de la medición.Teniendo ésto entonces podemos decir que: ;;;
